<svg id="Download_on_the_App_Store_Badge_PTBR_RGB_blk_092917" xmlns="http://www.w3.org/2000/svg" width="97.703" height="32.659" viewBox="0 0 97.703 32.659">
  <g id="Grupo_27" data-name="Grupo 27" transform="translate(0 0)">
    <g id="Grupo_25" data-name="Grupo 25">
      <path id="Caminho_105" data-name="Caminho 105" d="M89.923,0H7.785c-.3,0-.6,0-.894,0-.25,0-.5.006-.75.01A10.789,10.789,0,0,0,4.5.156,5.442,5.442,0,0,0,2.953.668a5.256,5.256,0,0,0-1.322.962A5.11,5.11,0,0,0,.669,2.954a5.39,5.39,0,0,0-.51,1.554A10.608,10.608,0,0,0,.012,6.143C0,6.393,0,6.644,0,6.895V25.767c0,.254,0,.5.012.753a10.608,10.608,0,0,0,.146,1.635,5.379,5.379,0,0,0,.51,1.555,5.068,5.068,0,0,0,.962,1.318,5.123,5.123,0,0,0,1.322.962A5.471,5.471,0,0,0,4.5,32.5a10.986,10.986,0,0,0,1.636.144c.252.006.5.009.75.009.3,0,.594,0,.894,0H89.923c.293,0,.592,0,.885,0,.249,0,.5,0,.753-.009a10.842,10.842,0,0,0,1.633-.144,5.556,5.556,0,0,0,1.558-.515,5.126,5.126,0,0,0,1.32-.962,5.221,5.221,0,0,0,.965-1.318,5.393,5.393,0,0,0,.505-1.555,11.028,11.028,0,0,0,.152-1.635c0-.254,0-.5,0-.753.006-.3.006-.592.006-.893V7.786c0-.3,0-.6-.006-.891,0-.25,0-.5,0-.752a11.03,11.03,0,0,0-.152-1.635,5.4,5.4,0,0,0-.505-1.554A5.279,5.279,0,0,0,94.751.668,5.526,5.526,0,0,0,93.193.156,10.65,10.65,0,0,0,91.56.012c-.249,0-.5-.009-.753-.01-.293,0-.592,0-.885,0Z" transform="translate(0 0)" fill="#a6a6a6"/>
      <path id="Caminho_106" data-name="Caminho 106" d="M7.055,32.105c-.249,0-.492,0-.738-.009a10.358,10.358,0,0,1-1.526-.133,4.8,4.8,0,0,1-1.353-.447,4.414,4.414,0,0,1-1.141-.83,4.344,4.344,0,0,1-.833-1.14,4.672,4.672,0,0,1-.443-1.353,10.135,10.135,0,0,1-.136-1.531c-.005-.172-.012-.746-.012-.746V7.055s.007-.565.012-.73A10.1,10.1,0,0,1,1.02,4.8a4.7,4.7,0,0,1,.444-1.357A4.387,4.387,0,0,1,2.293,2.3a4.544,4.544,0,0,1,1.145-.835,4.754,4.754,0,0,1,1.35-.444A10.276,10.276,0,0,1,6.319.885l.737-.01H90.964l.746.01a10.112,10.112,0,0,1,1.517.133,4.848,4.848,0,0,1,1.364.447,4.567,4.567,0,0,1,1.972,1.976A4.705,4.705,0,0,1,97,4.788a10.61,10.61,0,0,1,.142,1.541c0,.231,0,.48,0,.727.006.306.006.6.006.891V25.034c0,.3,0,.586-.006.878,0,.266,0,.509,0,.759A10.4,10.4,0,0,1,97,28.185a4.686,4.686,0,0,1-.441,1.364,4.475,4.475,0,0,1-.829,1.131,4.419,4.419,0,0,1-1.143.835,4.786,4.786,0,0,1-1.362.449A10.24,10.24,0,0,1,91.7,32.1c-.239.006-.49.009-.733.009l-.885,0Z" transform="translate(-0.16 -0.16)"/>
    </g>
    <g id="_Group_" data-name="&lt;Group&gt;" transform="translate(8.142 7.12)">
      <g id="_Group_2" data-name="&lt;Group&gt;">
        <g id="_Group_3" data-name="&lt;Group&gt;">
          <path id="_Path_" data-name="&lt;Path&gt;" d="M22.053,19.139a4.041,4.041,0,0,1,1.924-3.39,4.136,4.136,0,0,0-3.259-1.762c-1.371-.144-2.7.82-3.4.82s-1.788-.806-2.946-.782a4.34,4.34,0,0,0-3.652,2.227c-1.579,2.734-.4,6.752,1.111,8.962.757,1.082,1.641,2.291,2.8,2.248,1.133-.047,1.555-.722,2.923-.722s1.751.722,2.932.695c1.215-.02,1.981-1.087,2.711-2.179a8.95,8.95,0,0,0,1.24-2.525A3.9,3.9,0,0,1,22.053,19.139Z" transform="translate(-9.972 -9.684)" fill="#fff"/>
          <path id="_Path_2" data-name="&lt;Path&gt;" d="M21.441,11.57a3.978,3.978,0,0,0,.91-2.85,4.048,4.048,0,0,0-2.619,1.355A3.785,3.785,0,0,0,18.8,12.82,3.347,3.347,0,0,0,21.441,11.57Z" transform="translate(-11.59 -8.72)" fill="#fff"/>
        </g>
      </g>
      <g id="Grupo_26" data-name="Grupo 26" transform="translate(19.968 7.471)">
        <path id="Caminho_107" data-name="Caminho 107" d="M40.857,25.477H36.992l-.928,2.74H34.427l3.661-10.139h1.7l3.661,10.139H41.784Zm-3.464-1.265h3.063l-1.51-4.448H38.9Z" transform="translate(-34.427 -17.909)" fill="#fff"/>
        <path id="Caminho_108" data-name="Caminho 108" d="M53.595,25.121c0,2.3-1.23,3.773-3.085,3.773A2.506,2.506,0,0,1,48.184,27.6h-.035v3.661H46.631V21.425H48.1v1.23h.028a2.622,2.622,0,0,1,2.354-1.307C52.358,21.347,53.595,22.83,53.595,25.121Zm-1.56,0c0-1.5-.773-2.481-1.953-2.481-1.159,0-1.939,1-1.939,2.481s.78,2.487,1.939,2.487C51.262,27.608,52.035,26.631,52.035,25.121Z" transform="translate(-36.667 -18.509)" fill="#fff"/>
        <path id="Caminho_109" data-name="Caminho 109" d="M63.559,25.121c0,2.3-1.23,3.773-3.085,3.773A2.506,2.506,0,0,1,58.149,27.6h-.035v3.661H56.6V21.425h1.469v1.23h.028a2.622,2.622,0,0,1,2.354-1.307C62.323,21.347,63.559,22.83,63.559,25.121Zm-1.56,0c0-1.5-.773-2.481-1.953-2.481-1.159,0-1.939,1-1.939,2.481s.78,2.487,1.939,2.487c1.18,0,1.954-.977,1.954-2.487Z" transform="translate(-38.496 -18.509)" fill="#fff"/>
        <path id="Caminho_110" data-name="Caminho 110" d="M71.361,25.354c.112,1.005,1.089,1.666,2.424,1.666,1.279,0,2.2-.66,2.2-1.567,0-.787-.555-1.258-1.869-1.581L72.8,23.555c-1.862-.45-2.726-1.32-2.726-2.733,0-1.749,1.525-2.951,3.689-2.951,2.142,0,3.611,1.2,3.661,2.951H75.893c-.092-1.012-.928-1.623-2.15-1.623s-2.059.618-2.059,1.517c0,.717.534,1.139,1.841,1.461l1.117.274c2.08.492,2.945,1.328,2.945,2.811,0,1.9-1.511,3.085-3.914,3.085-2.249,0-3.767-1.16-3.865-2.994Z" transform="translate(-40.92 -17.871)" fill="#fff"/>
        <path id="Caminho_111" data-name="Caminho 111" d="M82.762,19.3v1.749h1.406v1.2H82.762v4.075c0,.633.281.928.9.928a4.741,4.741,0,0,0,.5-.035v1.194a4.167,4.167,0,0,1-.843.07c-1.5,0-2.08-.562-2.08-2V22.251H80.163v-1.2h1.075V19.3Z" transform="translate(-42.821 -18.133)" fill="#fff"/>
        <path id="Caminho_112" data-name="Caminho 112" d="M86.065,25.118c0-2.326,1.37-3.787,3.506-3.787s3.507,1.461,3.507,3.787-1.356,3.787-3.507,3.787S86.065,27.451,86.065,25.118Zm5.467,0c0-1.6-.731-2.537-1.961-2.537s-1.96.949-1.96,2.537.73,2.536,1.96,2.536,1.961-.934,1.961-2.536Z" transform="translate(-43.904 -18.506)" fill="#fff"/>
        <path id="Caminho_113" data-name="Caminho 113" d="M96.186,21.425h1.447v1.258h.035a1.763,1.763,0,0,1,1.778-1.336,2.34,2.34,0,0,1,.52.057v1.419a2.121,2.121,0,0,0-.682-.092,1.529,1.529,0,0,0-1.581,1.7v4.385H96.186Z" transform="translate(-45.761 -18.509)" fill="#fff"/>
        <path id="Caminho_114" data-name="Caminho 114" d="M107.885,26.643a2.967,2.967,0,0,1-3.183,2.263c-2.15,0-3.485-1.441-3.485-3.752s1.342-3.822,3.421-3.822c2.045,0,3.331,1.4,3.331,3.646v.52h-5.221v.092a1.925,1.925,0,0,0,1.989,2.094,1.672,1.672,0,0,0,1.707-1.04Zm-5.129-2.206h3.7a1.778,1.778,0,0,0-1.813-1.876,1.871,1.871,0,0,0-1.883,1.876Z" transform="translate(-46.685 -18.506)" fill="#fff"/>
      </g>
    </g>
  </g>
  <g id="_Group_4" data-name="&lt;Group&gt;" transform="translate(29.125 6.739)">
    <g id="Grupo_28" data-name="Grupo 28">
      <path id="Caminho_115" data-name="Caminho 115" d="M35.671,13.6V8.731h1.958c.915,0,1.466.466,1.466,1.215a1.068,1.068,0,0,1-.854,1.047v.057a1.152,1.152,0,0,1,1.1,1.171c0,.858-.624,1.381-1.665,1.381Zm.757-2.809h.9c.669,0,1.017-.246,1.017-.709s-.328-.712-.888-.712H36.428Zm1.094,2.168c.682,0,1.043-.277,1.043-.793s-.375-.777-1.087-.777h-1.05v1.57Z" transform="translate(-35.671 -8.341)" fill="#fff"/>
      <path id="Caminho_116" data-name="Caminho 116" d="M41.114,12.816c0-.662.493-1.043,1.367-1.1l1-.057v-.317c0-.388-.257-.608-.753-.608-.405,0-.686.149-.766.409h-.7c.074-.631.668-1.037,1.5-1.037.922,0,1.442.459,1.442,1.235v2.512h-.7v-.517h-.057a1.237,1.237,0,0,1-1.1.577,1.111,1.111,0,0,1-1.226-1.1Zm2.363-.314v-.307l-.9.057c-.506.034-.736.206-.736.53s.287.523.682.523a.867.867,0,0,0,.952-.8Z" transform="translate(-36.67 -8.594)" fill="#fff"/>
      <path id="Caminho_117" data-name="Caminho 117" d="M46.169,8.751a.47.47,0,1,1,.47.442.447.447,0,0,1-.47-.442Zm.108,1.087H47v3.677h-.723Z" transform="translate(-37.597 -8.253)" fill="#fff"/>
      <path id="Caminho_118" data-name="Caminho 118" d="M49.874,12.568l-.8,1.3h-.8l1.219-1.83-1.23-1.847h.848l.79,1.3h.057l.783-1.3h.807l-1.212,1.816,1.226,1.86h-.833l-.8-1.3Z" transform="translate(-37.982 -8.61)" fill="#fff"/>
      <path id="Caminho_119" data-name="Caminho 119" d="M53.088,12.816c0-.662.493-1.043,1.367-1.1l1-.057v-.317c0-.388-.257-.608-.753-.608-.405,0-.686.149-.766.409h-.7c.074-.631.668-1.037,1.5-1.037.922,0,1.442.459,1.442,1.235v2.512h-.7v-.517h-.057a1.237,1.237,0,0,1-1.1.577,1.111,1.111,0,0,1-1.226-1.1Zm2.363-.314v-.307l-.9.057c-.506.034-.736.206-.736.53s.287.523.682.523a.867.867,0,0,0,.952-.8Z" transform="translate(-38.867 -8.594)" fill="#fff"/>
      <path id="Caminho_120" data-name="Caminho 120" d="M58.259,10.181h.7v.564h.054A1,1,0,0,1,60,10.12a1.526,1.526,0,0,1,.324.03v.716a1.988,1.988,0,0,0-.405-.044.861.861,0,0,0-.938.864v2.171h-.726Z" transform="translate(-39.816 -8.595)" fill="#fff"/>
      <path id="Caminho_121" data-name="Caminho 121" d="M64.218,10.178h.7v.584h.054a1.1,1.1,0,0,1,1.1-.655,1.2,1.2,0,0,1,1.273,1.367v2.38h-.726v-2.2c0-.591-.257-.885-.793-.885a.843.843,0,0,0-.878.932v2.151h-.726Z" transform="translate(-40.91 -8.593)" fill="#fff"/>
      <path id="Caminho_122" data-name="Caminho 122" d="M69.161,12.816c0-.662.493-1.043,1.367-1.1l1-.057v-.317c0-.388-.257-.608-.753-.608-.405,0-.686.149-.766.409h-.7c.074-.631.668-1.037,1.5-1.037.922,0,1.442.459,1.442,1.235v2.512h-.7v-.517H71.49a1.237,1.237,0,0,1-1.1.577,1.111,1.111,0,0,1-1.226-1.1Zm2.363-.314v-.307l-.9.057c-.506.034-.736.206-.736.53s.287.523.682.523a.867.867,0,0,0,.952-.8Z" transform="translate(-41.817 -8.594)" fill="#fff"/>
    </g>
  </g>
</svg>
